{
  "formatVersion": 1,
  "database": {
    "version": 1,
    "identityHash": "83bf45abb2772c3ef814cad5874e4bdd",
    "entities": [
      {
        "tableName": "timeline_events",
        "createSql": "CREATE TABLE IF NOT EXISTS `${TABLE_NAME}` (`id` INTEGER PRIMARY KEY AUTOINCREMENT NOT NULL, `education_form` TEXT NOT NULL, `funding_form` TEXT NOT NULL, `description` TEXT NOT NULL, `date` INTEGER NOT NULL, `is_selected` INTEGER NOT NULL)",
        "fields": [
          {
            "fieldPath": "id",
            "columnName": "id",
            "affinity": "INTEGER",
            "notNull": true
          },
          {
            "fieldPath": "educationForm",
            "columnName": "education_form",
            "affinity": "TEXT",
            "notNull": true
          },
          {
            "fieldPath": "fundingForm",
            "columnName": "funding_form",
            "affinity": "TEXT",
            "notNull": true
          },
          {
            "fieldPath": "description",
            "columnName": "description",
            "affinity": "TEXT",
            "notNull": true
          },
          {
            "fieldPath": "date",
            "columnName": "date",
            "affinity": "INTEGER",
            "notNull": true
          },
          {
            "fieldPath": "isSelected",
            "columnName": "is_selected",
            "affinity": "INTEGER",
            "notNull": true
          }
        ],
        "primaryKey": {
          "columnNames": [
            "id"
          ],
          "autoGenerate": true
        },
        "indices": [],
        "foreignKeys": []
      }
    ],
    "views": [],
    "setupQueries": [
      "CREATE TABLE IF NOT EXISTS room_master_table (id INTEGER PRIMARY KEY,identity_hash TEXT)",
      "INSERT OR REPLACE INTO room_master_table (id,identity_hash) VALUES(42, '83bf45abb2772c3ef814cad5874e4bdd')"
    ]
  }
}